{
  "$schema": "https://github.com/fastfetch-cli/fastfetch/raw/dev/doc/json_schema.json",
  "logo": {
    "source": "arch_small",
    "padding": {
      "top": 2
    }
  },
  "display": {
    "separator": "  "
  },
  "modules": [
    {
      "type": "custom",
      "format": "┌────────────────────────────────────┐"
    },
    {
      "type": "cpu",
      "key": "  ●",
      "format": "{}"
    },
    {
      "type": "gpu",
      "key": "  ●",
      "format": "{1} {2}",
      "forceVulkan": false
    },
    {
      "type": "bluetooth",
      "key": "  ●"
    },
    {
      "type": "gamepad",
      "key": "  ●"
    },
    {
      "type": "kernel",
      "key": "  ●",
      "format": "{1} {2}"
    },
    {
      "type": "lm",
      "key": "  ●",
      "format": "{} "
    },
    {
      "type": "de",
      "key": "  ●",
      "format": "{}"
    },
    {
      "type": "wm",
      "key": "  ●",
      "format": "{}"
    },
    {
      "type": "terminal",
      "key": "  ●",
      "format": "{}"
    },
    {
      "type": "shell",
      "key": "  ●",
      "format": "{}"
    },
    {
      "type": "uptime",
      "key": "  ●"
    },
    {
      "type": "localip",
      "key": "  ●",
      "format": "{} "
    },
    {
      "type": "custom",
      "format": "    \u001b[31m  ▄\u001b[91m▄\u001b[0m\u001b[32m  ▄\u001b[92m▄\u001b[0m\u001b[33m  ▄\u001b[93m▄\u001b[0m\u001b[34m  ▄\u001b[94m▄\u001b[0m\u001b[35m  ▄\u001b[95m▄\u001b[0m\u001b[36m  ▄\u001b[96m▄\u001b[0m\u001b[37m  ▄\u001b[97m▄"
    },
    {
      "type": "custom",
      "format": "└────────────────────────────────────┘"
    }
  ]
}
